{
    "BENTOCORD_ADV_NOTEXIST": "Command `{command}` does not exist.",
    "BENTOCORD_ADV_NO_RECURSIVE": "Recursive execution is not allowed.",
    "BENTOCORD_COMMAND_ADV": "advanced",
    "BENTOCORD_COMMAND_ADV_DESCRIPTION": "Run non-slash exposed commands",
    "BENTOCORD_COMMAND_BENTO": "bento",
    "BENTOCORD_COMMAND_BENTO_DESCRIPTION": "Display bentocord details",
    "BENTOCORD_COMMAND_ERROR": "There was an error processing command: {error}",
    "BENTOCORD_COMMAND_PING": "ping",
    "BENTOCORD_COMMAND_PING_DESCRIPTION": "Check if the bot is online",
    "BENTOCORD_COMMAND_PONG": "pong",
    "BENTOCORD_COMMAND_PREFIX": "prefix",
    "BENTOCORD_COMMAND_PREFIX_DESCRIPTION": "Manage command prefix",
    "BENTOCORD_COMMAND_PREFIX_SET": "set",
    "BENTOCORD_COMMAND_PREFIX_SET_DESCRIPTION": "Set Prefix",
    "BENTOCORD_COMMAND_PREFIX_VIEW": "view",
    "BENTOCORD_COMMAND_PREFIX_VIEW_DESCRIPTION": "View Prefix",
    "BENTOCORD_COMMAND_SETGAME": "setgame",
    "BENTOCORD_COMMAND_SETGAME_DESCRIPTION": "Set the bot's game status",
    "BENTOCORD_OPTION_ACTIVITY": "activity",
    "BENTOCORD_OPTION_ACTIVITY_DESCRIPTION": "Activity name",
    "BENTOCORD_OPTION_ALIAS": "alias",
    "BENTOCORD_OPTION_ALIAS_DESCRIPTION": "Command name or alias",
    "BENTOCORD_OPTION_OPTIONS": "options",
    "BENTOCORD_OPTION_OPTIONS_DESCRIPTION": "Command arguments to pass",
    "BENTOCORD_OPTION_PREFIX": "prefix",
    "BENTOCORD_OPTION_PREFIX_DESCRIPTION": "New Prefix",
    "BENTOCORD_OPTION_TYPE": "type",
    "BENTOCORD_OPTION_TYPE_DESCRIPTION": "Type",
    "BENTOCORD_PAGINATION_NAVIGATION": "Type `<` or `>` to switch pages, `x` to close, or `p[number]` to jump to a page (ex. `p10`).",
    "BENTOCORD_PAGINATION_PAGE": "Page {page}/{total}",
    "BENTOCORD_PERMISSION_DENIED": "Permission `{permission}` has been denied on the `{where}` level.",
    "BENTOCORD_PERMISSION_DENIED_DEFAULT": "Permission `{permission}` is denied by default. Please contact a server administrator to grant you this permission.",
    "BENTOCORD_PING": "Pong!",
    "BENTOCORD_PING_COUNT": "Pong! API: `{s, number}s {ms, number}ms`",
    "BENTOCORD_PING_COUNT_WS": "Pong! API: `{s, number}s {ms, number}ms`, Gateway: `{ws}ms`",
    "BENTOCORD_PREFIX": "Current prefix is `{prefix}`.",
    "BENTOCORD_PREFIX_SET": "Prefix has been set to `{prefix}`.",
    "BENTOCORD_PRESENCE_UPDATED": "Presence Updated!",
    "BENTOCORD_PROMPTMANAGER_UNLOAD": "The manager is unloading.",
    "BENTOCORD_PROMPT_CANCELED": "Prompt has been canceled.",
    "BENTOCORD_PROMPT_CANCELED_MAX_ATTEMPTS": "Max invalid attempts.",
    "BENTOCORD_PROMPT_CANCELED_NEW": "New prompt was opened.",
    "BENTOCORD_PROMPT_CANCELED_REASON": "Prompt has been canceled: {reason}",
    "BENTOCORD_PROMPT_CANCELED_TIMEOUT": "Input timeout.",
    "BENTOCORD_PROMPT_CHOICE": "Please select one of the following choices:",
    "BENTOCORD_PROMPT_CHOICE_OPTION": "Please select one of the following choices for option `{option}`:",
    "BENTOCORD_PROMPT_CONFIRM": "Please confirm you wish to continue [y/n]:",
    "BENTOCORD_PROMPT_MISSING_PERMISSION": "It doesn't look like I have the `{permission}` Discord permission. Please grant it for a better experience.",
    "BENTOCORD_PROMPT_OPTION": "Please provide an input for option `{option}` of type `{type}`:",
    "BENTOCORD_PROMPT_SUBCOMMAND": "Please select a subcommand:",
    "BENTOCORD_PROMPT_USAGE": "*You may respond via message or the `r` command.*",
    "BENTOCORD_PROMPT_VALIDATE_ERROR": "**Failed to validate input. Please try again.**",
    "BENTOCORD_SUPPRESSOR_BOT_OWNER": "You are not a bot owner.",
    "BENTOCORD_SUPPRESSOR_CHANNEL_DENIED": "This command cannot be executed in the current channel.",
    "BENTOCORD_SUPPRESSOR_GUILD": "This command must be executed in a server.",
    "BENTOCORD_SUPPRESSOR_GUILD_ADMIN": "You are not a server administrator.",
    "BENTOCORD_SUPPRESSOR_GUILD_DENIED": "This command cannot be executed in the current server.",
    "BENTOCORD_SUPPRESSOR_GUILD_OWNER": "You are not the server owner.",
    "BENTOCORD_SUPPRESSOR_HALT": "Execution was halted by `{suppressor}`: {message}",
    "BENTOCORD_SUPPRESSOR_ROLE": "You do not possess the required roles.",
    "BENTOCORD_SUPPRESSOR_USER_DENIED": "You are not allowed to execute this command."
}