{
    "ACTIONLOG_ACTIVE": "Enable/Disable",
    "ACTIONLOG_CHANNEL": "Channel to log actions in.",
    "ACTIONLOG_CONFIG_TITLE": "ActionLog Config",
    "ACTIONLOG_EVENTS": "Enable/Disable log for specific event",
    "ACTIONLOG_MYCONFIG": "Show actionlog config",
    "ACTIONLOG_NOCHANNEL": "No channel specified",
    "ACTIONLOG_NODISABLEDEVENTS": "There are no disabled events.",
    "ACTIONLOG_SUCCESSRESPONSE": "Updated your action log settings.",
    "ACTIONLOG_VALIDCHANNEL": "Please provide a valid Text Channel",
    "AFK_AFKSINCE": "AFK since",
    "AFK_MENTIONMESSAGE": "The user {user} is currently AFK.",
    "AFK_MESSAGETOOLARGE": "Your AFK message cannot be larger than 1024 characters.",
    "AFK_NOLONGERAFK": "You are no longer AFK.",
    "AFK_NOWAFK": "You are now AFK. The following message will be displayed if people mention you and AFK messages are enabled in the server:",
    "ALIASES_ADD_EXECUTED": "The alias `{name}` has been added for `{value}` .",
    "ALIASES_ALREADY_USED": "You cannot add an alias for an alias.",
    "ALIASES_AYANA_COMMAND": "The alias you tried to set is already used by Ayana.",
    "ALIASES_EXISTS": "An alias already exists with name `{name}`. Please choose some different name for your alias.",
    "ALIASES_INVALID_ALIAS": "The value of alias should be a valid ayana command.",
    "ALIASES_LIMIT_REACHED": "Alias limit of `{limit}` has been reached. Please remove unused alises to create more.",
    "ALIASES_MULTI_WORD_ERROR": "Alias should be a one word. Spaces are not allowed in alias name.",
    "ALIASES_NOT_FOUND": "No alias found with name `{name}`",
    "ALIASES_NO_ALIASES": "There are no aliases for this server",
    "ALIASES_REMOVE_EXECUTE": "The alias `{name}` has been removed.",
    "ALIASES_RENAME_EXECUTED": "The alias `{name}` has been renamed to `{newName}` .",
    "ALIASES_SAME_NAME": "New alias name is same as existing one.",
    "ALIASES_UPDATE_EXECUTE": "Value of alias `{name}` is updated to `{value}`",
    "ALIASES_USERARGS_EXECUTE": "User argument value for alias `{name}` is set to `{value}`",
    "AVATAR_DIRECT_LINK": "[Direct Link]({link})",
    "AVATAR_GLOBAL": "[Global Avatar]({link})",
    "AVATAR_SERVER": "[Server Avatar]({link})",
    "BIGTEXT_MUSTBENUMBERSMALLER": "{option} must be a number <= {bound}.",
    "BIGTEXT_OUTPUTTOOLARGE": "Whoops! The output message is larger than 2000 characters!",
    "BOTLIST_ERROR": "Failed to fetch botlist from carbonitex.net",
    "CHANNELINFO_BITRATE": "Voice Bitrate",
    "CHANNELINFO_CHANNEL_TYPE": "Channel Type",
    "CHANNELINFO_CONNECTED": "Connected Users",
    "CHANNELINFO_OVERWRITE": "Permission Overwrites",
    "CHANNELINFO_TEXT": "Text",
    "CHANNELINFO_VOICE": "Voice",
    "FORTUNE_ERROR": "An error occurred while getting fortune cookie. If you need more help, please report this to our support server (`support` command to get the invite).",
    "F_PAID": "**{username}** has paid their respects.",
    "F_PAIDFOOTER": "{daily} Today, {all} All",
    "F_PAIDFOR": "**{username}** has paid their respects for **{type}**.",
    "F_PAIDSTATS": "**{daily}** respects have been paid today. **{all}** all time.",
    "INFO_FOOTER": "*Ayana Creator, To view more information about all shards use {prefix}shardinfo",
    "INFO_USEFUL_LINKS": "**Useful links:**\n[Invite Me]({invite}), [Minimal Invite]({inviteMin}), [Ayana Status]({status}), [Support Server]({supportInvite}), [Donate]({donate}), [Twitter]({twitter}), [Facebook]({facebook})",
    "INVITE_ALPHA": "Sure thing :ok_hand:\nTo have me join your server please click on the link below:\n\n{invite}\n\nNote: Don't give Ayana Alpha too many permissions on your server. She can be unstable and there is no warranty if she breaks something on your server.",
    "INVITE_PRO": "Ayana PRO is an private hosted instance of Ayana exclusive to Patreon supporters.\nHigher quality playback, less downtime and more stability are just a few of the benefits you get.\n\nTo learn more or to get on board go to {uri}.\nAlternatively you can add public Ayana here {invite}.",
    "INVITE_TEXT": "Sure thing :ok_hand:\nTo have me join your server please choose one of the following links:\n\nRecommended Permissions: {invite}\nMinimal Permissions: {invitemin}",
    "KICK_TARGETHIGHERROLE": "{target} possesses a higher role than you. You may not modify them.",
    "KICK_TARGETHIGHERTHANBOT": "{target} possesses a higher role than I do. I can't modify them.",
    "MODLOG_DISABLED": "Modlog is disabled in settings.",
    "MODLOG_FAILURE": "Modlog failure.",
    "MODLOG_REASON_REQUIRED": "Modlog enabled, reason must be included.",
    "PERMISSIONS_ALL_GRANT_CONFIRM": "Permissions starting with `all` can be **very dangerous** to grant. Please confirm you wish to grant `{permission}` [y/n]?",
    "PERMISSIONS_GRANT_TARGET": "Permission `{permission}` was granted for `{target}`.",
    "PERMISSIONS_GRANT_TARGET_CHANNEL": "Permission `{permission}` granted for `{target}` on `{channel}`.",
    "PERMISSIONS_INVALID_PERMISSION": "`{permission}` is not a valid permission. Please see the `permissions list` command for a list of valid permissions.",
    "PERMISSIONS_LIST": "**Permission List**\n\nCommand permissions are equal to the path used to execute a command except spaces are replaced with `.`\nFor Example `music join` would become `music.join`",
    "PERMISSIONS_LIST_ITEM_COMMAND": "{permission}: \"{command}\" command",
    "PERMISSIONS_LIST_ITEM_GROUP": "{permission}: Group",
    "PERMISSIONS_NO_OVERRIDES": "There are no permission overrides defined. To see permission defaults use the `permission list` command.",
    "PERMISSIONS_RESETALL": "Permissions reset.",
    "PERMISSIONS_RESETALL_CONFIRM": "This action is PERMANENT and NOT REVERSIBLE!\nPlease confirm you wish to reset all permissions in this server. [y/n]",
    "PERMISSIONS_RESET_TARGET": "Permission `{permission}` was reset to default for `{target}`.",
    "PERMISSIONS_RESET_TARGET_CHANNEL": "Permission `{permission}` reset to default for `{target}` on `{channel}`.",
    "PERMISSIONS_REVOKE_TARGET": "Permission `{permission}` was revoked for `{target}`.",
    "PERMISSIONS_REVOKE_TARGET_CHANNEL": "Permission `{permission}` revoked for `{target}` on `{channel}`.",
    "PERMISSIONS_SHOW_ALL_HEADER": "All permission overrides for {level}. Please select one to see more",
    "PERMISSIONS_SHOW_ALL_ITEM": "{target}: {count} override(s)",
    "PERMISSIONS_SHOW_ALL_ITEM_CHANNEL": "{target} in {channel}: {count} overrides",
    "PERMISSIONS_SHOW_HEADER": "Permission overrides for `{target}`",
    "PERMISSIONS_SHOW_HEADER_CHANNEL": "Permission overrides for `{target}` in `{channel}`",
    "PERMISSIONS_SHOW_ITEM": "{permission}: {state}",
    "PICK_DEBUG": "Please provide multiple options in comma separated manner: {prefix}pick option1, option2, …",
    "PICK_LARGE_INPUT": "The input of the option I wanted to pick is too large.",
    "PRO_ALREADYUPGRADED": "Ayana PRO is already enabled for this server.\nTo finish setup, add Ayana PRO here: {invite}",
    "PRO_CANNOTDOWNGRADE": "Only an administrator or the user that upgraded this server to Ayana PRO may downgrade it.",
    "PRO_CANNOTUPGRADEMORE": "You cannot upgrade this server to Ayana PRO because you have already used all of your server upgrades.",
    "PRO_DISABLED": "Ayana PRO is disabled in this Ayana instance.",
    "PRO_DONATORTEXTNOTSET": "You don't have a donator text set that can be updated.",
    "PRO_DOWNGRADED": "This server no longer has Ayana PRO.",
    "PRO_GUILDCHECK": "This server has been upgraded by `{by}` on the following date: `{on}` ({ago} ago).",
    "PRO_INVALIDKEY": "The key you entered is not valid.",
    "PRO_KEYALREADYUSED": "The key you tried to redeem has already been used by someone else.",
    "PRO_KEYNOTFOUND": "The key you entered could not be found. You have {triesLeft} redeem tries left for today.",
    "PRO_KEYRELOADERROR": "Your key has been redeemed but something went wrong during the reload. It may take a little longer until you receive your subscription.",
    "PRO_NODATA": "You don't have any Ayana PRO subscriptions. For more information run the `pro` command.",
    "PRO_NOPATREON": "You need to support Ayana on Patreon to update your donation text.",
    "PRO_NOPUBLICUPGRADES": "This server does not allow public Ayana PRO upgrades. See `settings guild publicupgrades`.",
    "PRO_NOSUBSCRIPTIONS": "You don't have any PRO subscriptions. You can get Ayana PRO by supporting Ayana on Patreon.",
    "PRO_NOTRIES": "You have no more redeem tries for today. Please wait until tomorrow.",
    "PRO_NOTUPGRADED": "This server has not been upgraded to Ayana PRO.",
    "PRO_PLEDGETOOLOW": "Your Patreon pledge is too low to update your donation text.",
    "PRO_PROCESSINGERROR": "Something went wrong while trying to contact the subscription service.",
    "PRO_REDEEMERROR": "Something went wrong while trying to redeem your key.",
    "PRO_REDEEMSUCCESS": "Success! Your key has been redeemed. You can check your subscriptions with the `pro status` command and upgrade your server with the `pro upgrade` command.",
    "PRO_UPGRADED": "Ayana PRO has been enabled for this server.\nPlease invite her here: {invite}",
    "PRUNE_ALREADYPRUNING": "Someone already ran the prune command in this channel! Please wait until it's done.",
    "PRUNE_AMOUNT": "Prunes messages by the specified amount",
    "PRUNE_ATTACHMENTS": "Only prunes messages containing attachments",
    "PRUNE_BOTS": "Prunes all messages created by any bot",
    "PRUNE_CHOOSEONE": "You should choose one of the user and bots",
    "PRUNE_DELETEDBYUSER": "Deleted messages by user",
    "PRUNE_DONEPROCESSING": "Done! Showing prune results below.",
    "PRUNE_EMBEDS": "Only prunes messages containing embeds",
    "PRUNE_FILTER": "Only prunes messages that contain the specified string",
    "PRUNE_FOOTER": "Autodelete is enabled. This message will be deleted after 10 seconds.",
    "PRUNE_INVITES": "Only prunes messages containing Discord invites",
    "PRUNE_MESSAGEDELETING": "Deleting {count} messages, it may take a while",
    "PRUNE_MESSAGEFETCHING": "Fetching messages, it may take a while",
    "PRUNE_MESSAGEFETCHINGWITHCOUNT": "Fetching {count} messages, it may take a while",
    "PRUNE_OLDMESSAGEDELETED": "Old messages deleted",
    "PRUNE_OLDMESSAGENOTDELETED": "Old messages not deleted",
    "PRUNE_PINNED": "Also prunes pinned messages (they are not pruned by default)",
    "PRUNE_REACTIONS": "Only removes the reactions from the targeted messages instead of deleting them",
    "PRUNE_REMOVEDBYUSER": "Messages with removed reactions by user",
    "PRUNE_REMOVINGREACTIONS": "Removing reactions from {count} message(s)... This may take a while.",
    "PRUNE_RESULTS": "Prune results",
    "PRUNE_SILENT": "Silent. Disables printing the prune results at the end",
    "PRUNE_SYSTEM": "Only removes system messages",
    "PRUNE_TOTALDELETED": "Total messages deleted",
    "PRUNE_TOTALMSGSCANNED": "Total messages scanned",
    "PRUNE_TOTALMSGSREACTIONSREMOVED": "Total messages reactions were removed from",
    "PRUNE_UNTIL": "Prunes messages until the given message is reached",
    "PRUNE_USAGE": "To see the usage of prune, try `help prune`",
    "PRUNE_USER": "Prunes all messages by the specified user",
    "PRUNE_WRONGMESSAGEID": "The message id that was used in the until option could not be found in this channel.",
    "RANDOM_LIMIT_ERROR": "Lower bound cannot be bigger than upper bound.",
    "RANDOM_RESPONSE": "Your random number is {num}.",
    "REMINDER_CREATED": "Okay I will be sure to remind you!",
    "REMINDER_DELETE_DONE": "Reminder(s) deleted.",
    "REMINDER_DELETE_NOMATCHES": "No items in your reminders matched your query.",
    "REMINDER_EVENTS_PROCESSINGERROR": "Something went wrong while trying to contact the event service.",
    "REMINDER_INVALIDDURATION": "Please specify a time greater than 2 minutes.",
    "REMINDER_LIST_NONE": "You don't have any reminders right now.",
    "REMINDER_PARSEFAILED": "Failed to find a time to remind you.",
    "ROLE_ALREADYPROCESSING": "I am already processing a role request in this server.",
    "ROLE_BOTROLELOW": "I cannot use or modify the role `{role}` because my highest role is not above it. Please move me to a higher role.",
    "ROLE_CANNOTUSEINROLENOTINROLE": "You cannot combine `inrole`, `notinrole` and `noroles`.",
    "ROLE_DONEPROCESSING": "Done! Modified roles of {amount} users.",
    "ROLE_INVALIDHEXCODE": "You didn't use a valid hex code. Examples for valid hex codes are #F4C and #F77800.",
    "ROLE_MAXIMUMREACHED": "Your request exceeded the maximum of {limit} user role changes.",
    "ROLE_MODIFIED": "The role `{role}` has been modified.",
    "ROLE_NOOPTIONSSPECIFIED": "You didn't specify any options. Please check the help for this command for more information.",
    "ROLE_PLEASEWAIT": "Please wait while I process your request. (Users processed: {usersProcessed})",
    "ROLE_TOOMANYOPTIONS": "You used more than one of the following options, which is invalid `user, users, bots`.",
    "ROLE_USERROLELOW": "The role `{role}` cannot be used or modified because your highest role is not above it.",
    "SAR_CANNOTADDMOREROLES": "You cannot add more than {amnt} roles to a group.",
    "SAR_CANNOTCREATEMOREGROUPS": "You cannot create more than {amnt} groups.",
    "SAR_CANNOTUSERESERVED": "You cannot use this reserved keyword as group name.",
    "SAR_FIELDUPDATE": "Changed `{action}` in group `{groupName}` to `{value}`.",
    "SAR_GROUPALREADYCREATED": "The group `{group}` has already been created.",
    "SAR_GROUPCREATED": "The group `{group}` has been created.",
    "SAR_GROUPDELETED": "The group `{group}` has been deleted.",
    "SAR_GROUPINACTIVE": "The group `{group}` is inactive.",
    "SAR_GROUPNOROLES": "The group `{group}` has no roles to assign.",
    "SAR_GROUPNOTFOUND": "The group `{group}` could not be found.",
    "SAR_GROUPRENAMED": "The group `{group}` has been renamed to `{newGroup}`.",
    "SAR_HELP_CREATE": "Use `sar create` command to create a group.",
    "SAR_INVALINAME": "Group name can't have any white spaces.",
    "SAR_NOACTIVEGROUPS": "No active groups :(",
    "SAR_NOGROUPS": "No groups :(",
    "SAR_PICK": "Pick the role you want to assign or unassign from yourself",
    "SAR_PICKGROUP": "Pick a group you want to assign or unassign roles from.",
    "SAR_REQROLENOTOWNED": "You need to have the role `{role}` to use this group.",
    "SAR_ROLEALREADYADDED": "The role `{role}` has already been added.",
    "SAR_ROLENOTINGROUP": "The role `{role}` was not in the group.",
    "SAR_ROLESALREADYADDED": "The roles `{role}` have already been added.",
    "SAR_ROLESNOTINGROUP": "The roles `{role}` were not in the group.",
    "SAY_FOOTER": "The above message is user-generated content. Set `sneak` to true to remove this embed.",
    "SAY_SNEAK_NO_ROLE": "You do not have a valid role to use sneak on this server. See the `sneak.roles` server setting.",
    "SERVERINFO_CHANNEL_COUNTS": "{text} text / {voice} voice",
    "SETTINGS_SETTING_NOT_FOUND": "`{setting}` is not a valid setting.",
    "SETTINGS_SETTING_RESET": "Reset `{setting}` to default.",
    "SETTINGS_SETTING_SET": "Setting `{setting}` set to {value}.",
    "SETTINGS_SETTING_TITLE": "Setting: {setting}",
    "SUPPORT_TEXT": "For support, suggestions, or bugs with Ayana, please join the support server. {support}",
    "URBAN_ERROR": "No definition found"
}