{
    "EVENT_CHANNEL_CREATE": "STWORZONO_KANAŁ",
    "EVENT_CHANNEL_DELETE": "USUNIĘTO_KANAŁ",
    "EVENT_GUILD_BAN_ADD": "UŻYTKOWNIK_ZBANOWANY",
    "EVENT_GUILD_BAN_REMOVE": "BAN_COFNIĘTY",
    "EVENT_GUILD_MEMBER_ADD": "UŻYTKOWNIK_DOŁĄCZYŁ",
    "EVENT_GUILD_MEMBER_REMOVE": "UŻYTKOWNIK_WYSZEDŁ",
    "EVENT_GUILD_ROLE_CREATE": "UTWORZONO_ROLĘ",
    "EVENT_GUILD_ROLE_DELETE": "USUNIĘTO_ROLĘ",
    "EVENT_VOICE_CHANNEL_JOIN": "POŁĄCZONO_Z_KANAŁEM_GŁOSOWYM",
    "EVENT_VOICE_CHANNEL_LEAVE": "OPUSZCZONO_KANAŁ_GŁOSOWY",
    "EVENT_VOICE_CHANNEL_SWITCH": "ZMIENIONO_KANAŁ_GŁOSOWY"
}
