{
    "AWOO_OTHER": "{source} awoo {target}",
    "AWOO_SELF": "{source} awoo",
    "BAD_OTHER": "Cześć {target}, zostałeś ukarany przez {source} za twoje złe zachowanie",
    "BAD_SELF": "Chcesz ukarać samego siebie, {source}? Ok",
    "BLUSH_OTHER": "Awww patrz na to, {source} zarumienił się przez {target}, jak słodko",
    "BLUSH_SELF": "Awww {source} się zarumienił, ciekawe dlaczego hehehe",
    "CONFUSED_OTHER": "Hmm {target} zdezorientował {source}, co się stało?",
    "CONFUSED_SELF": "Hmm {source} jest zdezorientowany owo",
    "CUDDLE_OTHER": "Aww {source} tuli się do {target}",
    "CUDDLE_SELF": "{source} masz, tu trochę uścisków",
    "DANCE_OTHER": "{source} tańczy z {target}, co za słodka para",
    "DANCE_SELF": "owo {source} znienacka zaczął tańczyć",
    "DESCRIPTION_AWOO": "Zdjęcia Momiji/Wan, które 'awoo'",
    "DESCRIPTION_BAD": "Zdjęcia postaci, które zrobiły coś złego",
    "DESCRIPTION_BLUSH": "Zdjęcia zarumienionych postaci",
    "DESCRIPTION_CONFUSED": "Zdezorientowane zdjęcia anime dziewczynek",
    "DESCRIPTION_CUDDLE": "Zdjęcia tulania; możesz również kogoś wspomnieć, aby się tulić",
    "DESCRIPTION_DANCE": "Zdjęcia tańczących postaci",
    "DESCRIPTION_HUG": "Zdjęcia przytulania; możesz również kogoś wspomnieć, aby go przytulić",
    "DESCRIPTION_IDK": "Zdjęcia ze wzruszeniem ramion, kiedy nie masz pojęcia",
    "DESCRIPTION_INSULT": "Losowe zdjęcia obelg; możesz również kogoś wspomnieć, aby go obrazić",
    "DESCRIPTION_INU": "Losowe zdjęcia psów z random.dog",
    "DESCRIPTION_JOJO": "Memy z JoJo's Bizarre Adventure",
    "DESCRIPTION_KISS": "Zdjęcia całowania; możesz również kogoś wspomnieć, aby go pocałować",
    "DESCRIPTION_LEWD": "To jest zboczone!",
    "DESCRIPTION_LICK": "Zdjęcia lizania; możesz również kogoś wspomnieć, aby go polizać",
    "DESCRIPTION_NEKO": "Losowe zdjęcia kotów z random.cat",
    "DESCRIPTION_NOM": "Losowe zdjęcia jak ktoś je",
    "DESCRIPTION_NYAN": "Zdjęcia kocich dziewczynek",
    "DESCRIPTION_OWO": "Memy z 'OwO, what's this?'",
    "DESCRIPTION_PAT": "Zdjęcia głaskania po głowie; możesz również kogoś wspomnieć, aby go pogłaskać",
    "DESCRIPTION_PICK": "Wybierz jedną opcję z paru",
    "DESCRIPTION_POKE": "Zdjęcia zaczepiania; możesz również kogoś wspomnieć, aby go zaczepić",
    "DESCRIPTION_POUT": "Zdjęcia dąsających się postaci",
    "DESCRIPTION_SLAP": "Zdjęcia policzkowania; możesz również kogoś wspomnieć, aby go spoliczkować",
    "DESCRIPTION_SLEEPY": "Zdjęcia śpiących postaci",
    "DESCRIPTION_SMUG": "Zdjęcia próżnych postaci",
    "DESCRIPTION_STARE": "Zdjęcia gapiących się postaci; możesz również kogoś wspomnieć, aby gapić się na niego",
    "DESCRIPTION_SUMFUK": "Chcesz tymci rymci?",
    "DESCRIPTION_THUMBSUP": "Zdjęcia kciuka w górę",
    "DESCRIPTION_TRIGGERED": "Zdjęcia prowokacji: możesz również kogoś wspomnieć, aby pokazać, że jesteś sprowokowany na niego",
    "DESCRIPTION_WAA": "Zdjęcia płaczących postaci, na chwile, kiedy jesteś naprawdę smutny",
    "DESCRIPTION_WASTED": "Zdjęcia wykończonych postaci",
    "DESCRIPTION_WEEBSH": "Losowe zdjęcia anime o różnej tematyce",
    "HUG_OTHER": "{source} przytulił {target}",
    "HUG_SELF": "Proszę bardzo {source} *hugs*",
    "IDK_OTHER": "{source} wzrusza ramionami na {target} ¯\\_(ツ)_/¯",
    "IDK_SELF": "{source} wzrusza ramionami ¯\\_(ツ)_/¯",
    "INSULT_OTHER": "{source} obraził {target}, zrobiło się ostro",
    "INSULT_SELF": "{source} obraził sam siebie wow",
    "KISS_OTHER": "{source} pocałował {target}, wyglądają razem słodko",
    "KISS_SELF": "Całujesz sam siebie {source}? Przykro mi na to patrzeć",
    "LEWD_OTHER": "{source} myśli, że {target} jest zbyt zboczony",
    "LEWD_SELF": "{source} jest zbyt zboczony",
    "LICK_OTHER": "{source} polizał {target}, ok.",
    "LICK_SELF": "{source} liże... samego siebie?",
    "NOM_OTHER": "{source} oraz {target} wcinają razem owo",
    "NOM_SELF": "{source} wcina jedzenie uwu",
    "NYAN_OTHER": "Hej {target}, wygląda na to, że {source} chce Ci dać słodką kocią dziewczynkę",
    "NYAN_SELF": "Masz słodką kocią dziewczynkę {source}",
    "OWO_OTHER": "OwO, co to? W każdym razie witaj {target}",
    "OWO_SELF": "OwO, co to?",
    "PAT_OTHER": "{source} głaszcze {target} <:awooo:311128748026232832>",
    "PAT_SELF": "Masz już, pogłaszczę Cię {source} <:awooo:311128748026232832>",
    "POKE_OTHER": "{source} zaczepił {target} owo <:eyespurple:365904551099760640>",
    "POKE_SELF": "{source} został zaczepiony przeze mnie <:eyespurple:365904551099760640>",
    "POUT_OTHER": "Wygląda na to, że {source} dąsa się na {target}, co zrobiłeś?",
    "POUT_SELF": "{source} się dąsa, ciekawe dlaczego?",
    "SLAP_OTHER": "{source} spoliczkował {target}... Ale baka",
    "SLAP_SELF": "Hmm {source} policzkuje samego siebie, co?",
    "SLEEPY_OTHER": "{target}, wygląda na to, że {source} jest śpiący, czemu by mu nie pomóc? ouo",
    "SLEEPY_SELF": "{source} przysypia, czemu nie pójdziesz spać? ouo",
    "SMUG_OTHER": "{source} jest próżny wobec {target} hehe",
    "SMUG_SELF": "{source} wygląda nieco próżnie",
    "STARE_OTHER": "{source} gapi się na {target}, ciekawe czemu hmmm",
    "STARE_SELF": "Wygląda na to, że {source} na coś się gapi. Ciekawe co",
    "SUMFUK_OTHER": "O cześć {target}, {source} chciałby wiedzieć, czy chcesz trochę tymci rymci",
    "SUMFUK_SELF": "Wygląda na to, że {source} chce tymci rymci",
    "THUMBSUP_OTHER": "Hej {target}, {source} myśli, że twój pomysł jest wspaniały",
    "THUMBSUP_SELF": "{source} myśli, że ma wspaniały pomysł",
    "TRIGGERED_OTHER": "{source} jest sprowokowany przez {target}, co żeś zrobił?",
    "TRIGGERED_SELF": "{source} wygląda na sprowokowanego OwO",
    "WAA_OTHER": "Awww {target} spójrz! Przez Ciebie {source} jest smutny",
    "WAA_SELF": "{source} jest smutny :c",
    "WASTED_OTHER": "{target} został wycieńczony przez {source}",
    "WASTED_SELF": "{source} jest wycieńczony",
    "WEEBSH_FAIL": "Nie udało się uzyskać zdjęcia `{type}` z weeb.sh :< Spróbuj ponownie.",
    "WEEBSH_FOOTER": "Dostarczone przez weeb.sh",
    "WEEBSH_TYPES": "Typy weebsh"
}
