{
    "BENTOCORD_ADV_NOTEXIST": "ไม่พบคำสั้ง `{command}`",
    "BENTOCORD_ADV_NO_RECURSIVE": "ไม่อนุญาตให้เรียกซ้ำ",
    "BENTOCORD_COMMAND_ERROR": "เกิดข้อผิดพลาดระหว่างการประมวณผลคำสั่ง: {error}",
    "BENTOCORD_PAGINATION_NAVIGATION": "พิมพ์`< ` หรือ `> ` เพื่อเปลี่ยนหน้า, `x` เพื่อปิด, หรือ `p[เลข]` เพื่อไปหน้าอื่น (เช่น. `p10`).",
    "BENTOCORD_PAGINATION_PAGE": "หน้า{page}/{total}",
    "BENTOCORD_PING": "Pong!",
    "BENTOCORD_PING_COUNT": "Pong! `{s, number}s {ms, number}ms`",
    "BENTOCORD_PREFIX": "Prefix คือ `{prefix}`.",
    "BENTOCORD_PREFIX_SET": "Prefix ถูกเปลี่ยนเป็น `{prefix}`.",
    "BENTOCORD_PRESENCE_UPDATED": "อัพเดทสเตตัสแล้ว!",
    "BENTOCORD_PROMPTMANAGER_UNLOAD": "กำลังยกเลิกการโหลด",
    "BENTOCORD_PROMPT_CANCELED": "พร้อมท์ถูกยกเลิก",
    "BENTOCORD_PROMPT_CANCELED_MAX_ATTEMPTS": "ผิดพลาดถึงขีดจำกัด",
    "BENTOCORD_PROMPT_CANCELED_NEW": "พร้อมท์ใหม่เปิดเเล้ว",
    "BENTOCORD_PROMPT_CANCELED_REASON": "พร้อมท์ถูกยกเลิกเนื่องจาก: {reason}",
    "BENTOCORD_PROMPT_CANCELED_TIMEOUT": "ใส่ข้อมูลไม่ทันเวลา",
    "BENTOCORD_PROMPT_CHOICE": "เลือกหนึ่งในตัวเลือกต่อไปนี้:",
    "BENTOCORD_PROMPT_CHOICE_OPTION": "เลือกหนึ่งในตัวเลือกต่อไปนี้สำหรับตัวเลือก `{option}`:",
    "BENTOCORD_PROMPT_CONFIRM": "ยืนยันว่าคุณต้องการดำเนินการต่อ [y/n]:",
    "BENTOCORD_PROMPT_MISSING_PERMISSION": "คุณไม่มีสิทธ์ `{permission}` ในDiscord",
    "BENTOCORD_PROMPT_OPTION": "โปรดระบุข้อมูลสำหรับตัวเลือก `{option}` ของ `{type}`:",
    "BENTOCORD_PROMPT_SUBCOMMAND": "โปรดเลือกคำสั่งย่อย:",
    "BENTOCORD_PROMPT_USAGE": "*คุณสามารถตอบกลับทางข้อความหรือใช้คำสั่ง `r`*",
    "BENTOCORD_PROMPT_VALIDATE_ERROR": "**ไม่สามารถตรวจสอบอินพุต กรุณาลองอีกครั้ง**",
    "BENTOCORD_SUPPRESSOR_BOT_OWNER": "คุณไม่ใช่เจ้าของบอท",
    "BENTOCORD_SUPPRESSOR_CHANNEL_DENIED": "คำสั่งนี้ไม่สามารถใช้ในช่องปัจจุบัน",
    "BENTOCORD_SUPPRESSOR_GUILD": "คำสั่งนี้ต้องใช้ในเซิร์ฟเวอร์",
    "BENTOCORD_SUPPRESSOR_GUILD_ADMIN": "คุณไม่ใช่แอดมินของเซิร์ฟเวอร์",
    "BENTOCORD_SUPPRESSOR_GUILD_DENIED": "คำสั่งนี้ไม่สามารถใช้ในเซิร์ฟเวอร์ปัจจุบัน",
    "BENTOCORD_SUPPRESSOR_GUILD_OWNER": "คุณไม่ใช่เจ้าของเซิร์ฟเวอร์",
    "BENTOCORD_SUPPRESSOR_HALT": "การดำเนินการถูกระงับโดย`{suppressor}` : {message}",
    "BENTOCORD_SUPPRESSOR_ROLE": "คุณไม่มีบทบาทที่จำเป็น",
    "BENTOCORD_SUPPRESSOR_USER_DENIED": "คุณไม่ได้รับอนุญาตให้ใช้คำสั่งนี้"
}
