{
    "AYANA_VERSION": "Versão da Ayana",
    "BENTOCORD_VERSION": "Versão do Bentocord",
    "BENTO_VERSION": "Versão do Bento",
    "GATEWAY_FAILURE": "Falha ao conectar com o Gateway. Tente novamente mais tarde.",
    "GENERAL_ERROR": "Ocorreu um erro. Se você precisar de ajuda, por favor informe isto em nosso servidor de suporte (`support` comando para pegar o convite).\n````{error}```",
    "GUILD_LOCALE_UPDATED": "O idioma do servidor foi definido para {locale}.",
    "LOCALIZATION_FAILURE": "Falha ao encontrar tradução para `{key}`",
    "LOCALIZATION_FORMAT_FAILURE": "Falha ao formatar tradução `{key}`: {error}",
    "USER_LOCALE_UPDATED": "Seu idioma foi definido para {locale}.",
    "VIEW_LOCALE_HEADER": "[Configurações de tradução atuais]"
}
