{
    "WORD_ACTIVE": "有效",
    "WORD_ALLOWED": "已被允許",
    "WORD_CANCELED": "已取消",
    "WORD_CHANNEL": "頻道",
    "WORD_CHANNELS": "頻道",
    "WORD_CHANNL": "頻道",
    "WORD_COLOR": "顏色",
    "WORD_CONTAINER": "容器",
    "WORD_CREATED": "已建立",
    "WORD_DENIED": "已被禁止",
    "WORD_DEVELOPERS": "開發者",
    "WORD_DISABLED_EVENTS": "已停用事件",
    "WORD_ERROR": "錯誤",
    "WORD_GUILDS": "伺服器",
    "WORD_HEADS": "正面",
    "WORD_HOIST": "懸吊",
    "WORD_HOSTNAME": "主機名",
    "WORD_ID": "ID",
    "WORD_JOINED": "已加入",
    "WORD_LIBRARY": "函式庫",
    "WORD_MANAGED": "被管理",
    "WORD_MEMBER": "成員",
    "WORD_MENTION": "提及",
    "WORD_MENTIONABLE": "可提及",
    "WORD_NAME": "名字",
    "WORD_NEW_CHANNEL": "新頻道",
    "WORD_NICKNAME": "暱稱",
    "WORD_NO": "否",
    "WORD_NONE": "無",
    "WORD_OLD_CHANNEL": "舊頻道",
    "WORD_OWNER": "擁有者",
    "WORD_PLATFORM": "平臺",
    "WORD_POSITION": "位置",
    "WORD_RAM": "Ram",
    "WORD_ROLE": "身份組",
    "WORD_ROLES": "身份組",
    "WORD_SERVER": "伺服器",
    "WORD_SERVERS": "伺服器",
    "WORD_SHARD": "分片",
    "WORD_TAILS": "反面",
    "WORD_TOPIC": "主題",
    "WORD_TYPE": "類型",
    "WORD_UNAVAILABLE": "無法使用",
    "WORD_UPTIME": "運行時間",
    "WORD_USER": "使用者",
    "WORD_USERS": "使用者",
    "WORD_VERSION": "版本",
    "WORD_WEBSITE": "網站",
    "WORD_YES": "是"
}
