{
    "WORD_PLATFORM": "Platform",
    "WORD_HOSTNAME": "Nama host",
    "WORD_UPTIME": "Waktu aktif",
    "WORD_RAM": "RAM",
    "WORD_USERS": "Pengguna",
    "WORD_GUILDS": "Server",
    "WORD_CREATED": "Dibuat",
    "WORD_ID": "ID",
    "WORD_JOINED": "Bergabung",
    "WORD_NICKNAME": "Nama panggilan",
    "WORD_TYPE": "Tipe",
    "WORD_ROLES": "Peran",
    "WORD_MENTION": "Sebutan",
    "WORD_CANCELED": "Dibatalkan",
    "WORD_CHANNEL": "Kanal",
    "WORD_COLOR": "Warna",
    "WORD_ERROR": "Kesalahan",
    "WORD_MANAGED": "Dikelola",
    "WORD_MEMBER": "Anggota",
    "WORD_MENTIONABLE": "Dapat disebutkan",
    "WORD_NAME": "Nama",
    "WORD_NO": "Tidak",
    "WORD_OWNER": "Pemilik",
    "WORD_POSITION": "Posisi",
    "WORD_TOPIC": "Topik",
    "WORD_UNAVAILABLE": "Tidak tersedia",
    "WORD_YES": "Ya",
    "WORD_HOIST": "­Hoist",
    "WORD_HEADS": "Kepala",
    "WORD_TAILS": "Ekor",
    "WORD_WEBSITE": "Situs web",
    "WORD_CONTAINER": "Kontainer",
    "WORD_DEVELOPERS": "Pengembang",
    "WORD_LIBRARY": "Perpustakaan",
    "WORD_SERVERS": "Server",
    "WORD_SHARD": "Shard",
    "WORD_VERSION": "Versi",
    "WORD_DISABLED_EVENTS": "Acara yang Dinonaktifkan",
    "WORD_NEW_CHANNEL": "Kanal Baru",
    "WORD_USER": "Pengguna",
    "WORD_ACTIVE": "Aktif",
    "WORD_CHANNL": "Kanal",
    "WORD_OLD_CHANNEL": "Kanal Lama",
    "WORD_ROLE": "Peran",
    "WORD_CHANNELS": "Kanal",
    "WORD_NONE": "Tidak ada",
    "WORD_SERVER": "Server"
}
