{
    "DESCRIPTION_AVATAR": "Отобразить аватарку пользователя",
    "DESCRIPTION_BAN": "Забанить пользователей",
    "DESCRIPTION_BIGTEXT": "Сгенерировать текст из региональных индикаторов",
    "DESCRIPTION_BIGTEXTD": "То же самое, что и bigtext, но удаляет ваше сообщение",
    "DESCRIPTION_CHANNELINFO": "Отобразить информацию о канале",
    "DESCRIPTION_FLIPCOIN": "Подбросить монетку",
    "DESCRIPTION_FORTUNE": "Послания печенья с предсказаниями",
    "DESCRIPTION_GIVEROLE": "Выдача ролей",
    "DESCRIPTION_INFO": "Отобразить информацию о Айяне",
    "DESCRIPTION_INVITE": "Отобразить информацию о приглашениях",
    "DESCRIPTION_KICK": "Выгнать пользователей",
    "DESCRIPTION_LENNY": "Отобразить изображение Lenny",
    "DESCRIPTION_LENNYD": "То же самое, что и lenny, но удаляет ваше сообщение",
    "DESCRIPTION_MODIFYROLE": "Изменить роль",
    "DESCRIPTION_RANDOM": "Отобразить рандомное число с поддержкой нижнего и верхнего порога",
    "DESCRIPTION_ROLE": "Выдача, изъятие и изменение ролей",
    "DESCRIPTION_ROLEINFO": "Отобразить информацию о роли",
    "DESCRIPTION_SAY": "Пусть я скажу что-нибудь",
    "DESCRIPTION_SAYD": "То же самое, что say, но я удалю вашу команду",
    "DESCRIPTION_SERVERINFO": "Отобразить информацию о сервере",
    "DESCRIPTION_SHRUG": "Отобразить картинку пожатия плечами",
    "DESCRIPTION_SHRUGD": "То же самое, что shrug, но я удалю вашу команду",
    "DESCRIPTION_SPONGEBOB": "Губка боб высмеивающий мемы, также высмеет текст, что вы укажете",
    "DESCRIPTION_SUPPORT": "Отобразить ссылку-приглашение на канал поддержки",
    "DESCRIPTION_TAKEROLE": "Забрать роли"
}